# filtre uBlacklist 
# https://iorate.github.io/ublacklist/docs/advanced-features#subscription
# Groupe Reworld

*://*.akouodio.com/*
*://*.alfemminile.com/*
*://*.atelierb.video/*
*://*.aufeminin.com/*
*://*.auto-moto.com/*
*://*.autojournal.fr/*
*://*.autoplus.fr/*
*://*.be.com/*
*://*.beaute-test.com/*
*://*.bibamagazine.fr/*
*://*.closermag.fr/*
*://*.cnet.fr/*
*://*.damideco.com/*
*://*.diapasonmag.fr/*
*://*.doctissimo.fr/*
*://*.dzfoot.com/*
*://*.eclypsia.com/*
*://*.editorialink.fr/*
*://*.enfemenino.com/*
*://*.facebook.com/ZoomOnParis/*
*://*.facebook.com/hero.vertical/*
*://*.football.fr/*
*://*.gambettesbox.fr/*
*://*.gamekult.com/*
*://*.gamned.com/*
*://*.glowria.com/*
*://*.gofeminin.de/*
*://*.gourmand.viepratique.fr/*
*://*.grazia.fr/*
*://*.jeuxvideo-live.com/*
*://*.lacremedugaming.fr/*
*://*.leadslab.fr/*
*://*.lechasseurfrancais.com/*
*://*.lejournaldelamaison.fr/*
*://*.lesnumeriques.com/*
*://*.livinglymedia.com/*
*://*.magnetism.fr/*
*://*.maison-travaux.fr/*
*://*.maison-travaux.fr/*
*://*.mariefrance.fr/*
*://*.marmiton.org/*
*://*.melty.fr/*
*://*.metapic.com/*
*://*.modesettravaux.fr/*
*://*.mylittlebox.fr/*
*://*.mylittleparis.com/*
*://*.netmums.com/*
*://*.nextplz.fr/*
*://*.paroledemamans.com/*
*://*.peaches.fr/*
*://*.pleinevie.fr/*
*://*.psychologies.com/*
*://*.reponsesphoto.fr/*
*://*.reworldmedia.com/*
*://*.reworldmediaconnect.com/*
*://*.science-et-vie.com/*
*://*.sport365.fr/*
*://*.sportauto.fr/*
*://*.sports.fr/*
*://*.studio71.com/*
*://*.supersoluce.com/*
*://*.telepoche.fr/*
*://*.telestar.fr/*
*://*.testsdeproduits.fr/*
*://*.tf1digitalfactory.fr/*
*://*.therhappy.com/*
*://*.topsante.com/*
*://*.tradedoubler.com/*
*://*.tryandreview.com/*
*://*.ykone.com/*
*://*.zdnet.fr/*

